Visualization Final Report
…
big_tech_companies <- readr::read_csv('https://raw.githubusercontent.com/rfordatascience/tidytuesday/master/data/2023/2023-02-07/big_tech_companies.csv')

Rows: 14 Columns: 2
── Column specification ────────────────────────────────────────────────────────
Delimiter: ","
chr (2): stock_symbol, company

ℹ Use `spec()` to retrieve the full column specification for this data.
ℹ Specify the column types or set `show_col_types = FALSE` to quiet this message.

The data table and the big tech companies that will be analyzed are shown below:

big_tech_stock_prices

# A tibble: 45,088 × 8
   stock_symbol date        open  high   low close adj_close    volume
   <chr>        <date>     <dbl> <dbl> <dbl> <dbl>     <dbl>     <dbl>
 1 AAPL         2010-01-04  7.62  7.66  7.58  7.64      6.52 493729600
 2 AAPL         2010-01-05  7.66  7.70  7.62  7.66      6.53 601904800
 3 AAPL         2010-01-06  7.66  7.69  7.53  7.53      6.42 552160000
 4 AAPL         2010-01-07  7.56  7.57  7.47  7.52      6.41 477131200
 5 AAPL         2010-01-08  7.51  7.57  7.47  7.57      6.45 447610800
 6 AAPL         2010-01-11  7.6   7.61  7.44  7.50      6.40 462229600
 7 AAPL         2010-01-12  7.47  7.49  7.37  7.42      6.32 594459600
 8 AAPL         2010-01-13  7.42  7.53  7.29  7.52      6.41 605892000
 9 AAPL         2010-01-14  7.50  7.52  7.46  7.48      6.38 432894000
10 AAPL         2010-01-15  7.53  7.56  7.35  7.35      6.27 594067600
# … with 45,078 more rows
…
Refining the Data

A new objective

I want to examine the stock prices, for each of the 14 big tech companies in the data, over time. I will begin by selecting/ filtering the data. With the ample amount of data, I decided to focus on the highest price per day and summarize that data into the highest price over time, from 2010 to 2022, per stock company.

big_tech_stock_prices |>
  select(stock_symbol, date, high)

# A tibble: 45,088 × 3
   stock_symbol date        high
   <chr>        <date>     <dbl>
 1 AAPL         2010-01-04  7.66
 2 AAPL         2010-01-05  7.70
 3 AAPL         2010-01-06  7.69
 4 AAPL         2010-01-07  7.57
 5 AAPL         2010-01-08  7.57
 6 AAPL         2010-01-11  7.61
 7 AAPL         2010-01-12  7.49
 8 AAPL         2010-01-13  7.53
 9 AAPL         2010-01-14  7.52
10 AAPL         2010-01-15  7.56
# … with 45,078 more rows

big_tech_stock_prices |>
  select(stock_symbol, date, high) 

# A tibble: 45,088 × 3
   stock_symbol date        high
   <chr>        <date>     <dbl>
 1 AAPL         2010-01-04  7.66
 2 AAPL         2010-01-05  7.70
 3 AAPL         2010-01-06  7.69
 4 AAPL         2010-01-07  7.57
 5 AAPL         2010-01-08  7.57
 6 AAPL         2010-01-11  7.61
 7 AAPL         2010-01-12  7.49
 8 AAPL         2010-01-13  7.53
 9 AAPL         2010-01-14  7.52
10 AAPL         2010-01-15  7.56
# … with 45,078 more rows
…
